{
    "parameters": {
        "api": {
            "baseUrl": "https://api.sendgrid.com/v3/",
            "retryConfig": {
                "http": {
                    "retryHeader": "X-Ratelimit-Reset",
                    "codes": [408,429,500]
                },
                "maxRetries": 3    
            },
            "http": {
                "headers": {
                    "Authorization": {
                        "function": "concat",
                        "args": [
                            "Bearer ",
                            {
                                "attr": "#api_token"
                            }
                        ]
                    }
                }
            }
        },
        "config": {
            "debug": true,
            "incrementalOutput": true,
            "outputBucket": "sendgrid",
            "#api_token": "XXXX",
            "jobs": [
                {
                    "endpoint": "campaigns",
                    "dataType": "campaigns",
                    "dataField": "campaigns"
                }
            ],
            "mappings":{
                "campaigns": {
                    "id": {
                        "mapping": {
                            "destination": "id",
                            "primaryKey": true
                        }
                    },
                    "title": {
                        "type": "column",
                        "mapping": {"destination": "title"}
                    },
                    "subject": {
                        "type": "column",
                        "mapping": {"destination": "subject"}
                    },
                    "send_id": {
                        "type": "column",
                        "mapping": {"destination": "send_id"}
                    },
                    "list_ids": {
                        "type": "column",
                        "mapping": {"destination": "list_ids"}
                    },
                    "segment_ids": {
                        "type": "column",
                        "mapping": {"destination": "segment_ids"}
                    },
                    "categories": {
                        "type": "column",
                        "mapping": {"destination": "categories"}
                    },
                    "suppression_group_id": {
                        "type": "column",
                        "mapping": {"destination": "suppression_group_id"}
                    },
                    "custom_unsubscribe_url": {
                        "type": "column",
                        "mapping": {"destination": "custom_unsubscribe_url"}
                    },
                    "ip_pool": {
                        "type": "column",
                        "mapping": {"destination": "ip_pool"}
                    },
                    "html_content": {
                        "type": "column",
                        "mapping": {"destination": "html_content"}
                    },
                    "plain_content": {
                        "type": "column",
                        "mapping": {"destination": "plain_content"}
                    },
                    "editor": {
                        "type": "column",
                        "mapping": {"destination": "editor"}
                    },
                    "status": {
                        "type": "column",
                        "mapping": {"destination": "status"}
                    }
                }
            }
        }
    }
}